module github.com/mchineboy/cahbot

go 1.21.4

require (
	github.com/briandowns/openweathermap v0.19.0
	github.com/bwmarrin/discordgo v0.27.1
	github.com/fogleman/gg v1.3.0
	github.com/mitchellh/go-wordwrap v1.0.1
	github.com/sashabaranov/go-openai v1.17.9
	go.mongodb.org/mongo-driver v1.13.0
)

require (
	github.com/golang/freetype v0.0.0-20170609003504-e2365dfdc4a0 // indirect
	github.com/golang/snappy v0.0.1 // indirect
	github.com/gorilla/websocket v1.4.2 // indirect
	github.com/klauspost/compress v1.13.6 // indirect
	github.com/montanaflynn/stats v0.0.0-20171201202039-1bf9dbcd8cbe // indirect
	github.com/xdg-go/pbkdf2 v1.0.0 // indirect
	github.com/xdg-go/scram v1.1.2 // indirect
	github.com/xdg-go/stringprep v1.0.4 // indirect
	github.com/youmark/pkcs8 v0.0.0-20181117223130-1be2e3e5546d // indirect
	golang.org/x/crypto v0.14.0 // indirect
	golang.org/x/image v0.14.0 // indirect
	golang.org/x/sync v0.0.0-20220722155255-886fb9371eb4 // indirect
	golang.org/x/sys v0.14.0 // indirect
	golang.org/x/text v0.14.0 // indirect
)
